{
    "@class": "com.kony.gen.viz.model.component.KVizButton",
    "DNDConfig": null,
    "__parentReadjusting__": false,
    "_height_": {
        "type": "string",
        "value": "50dp"
    },
    "_left_": {
        "type": "string",
        "value": "33dp"
    },
    "_margin_": [
        6,
        6,
        6,
        6
    ],
    "_padding_": [
        0,
        0,
        0,
        0
    ],
    "_skin_": "sdd6644a346e43868435efda0f96851c",
    "_text_": "Button",
    "_top_": {
        "type": "string",
        "value": "28dp"
    },
    "_width_": {
        "type": "string",
        "value": "260dp"
    },
    "canUpdateUI": true,
    "containerweight": 100,
    "contentalignment": 5,
    "displaytext": true,
    "focusskin": "s53e723bc0cc4ca7a72d44d82accc3c7",
    "id": "Button0ce05aa6416684e",
    "info": null,
    "iscustomlayout": false,
    "isvisible": true,
    "kuid": "b4fe6a0318bb4f66b415c3e34a01e9c3",
    "name": "kony.ui.Button",
    "parent": "Home",
    "pf": "Home",
    "retaincontentalignment": false,
    "retainflexpositionproperties": false,
    "wType": "Button",
    "zindex": 1
}